#VRML V2.0 utf8


Group {
  children 
    DEF o0 Group {
      children 
        DEF o1 Group {
          children 
            DEF o2 Transform {
              translation -0 -0 -0
              rotation 0 0 1  0
              scale 1 1 1
              scaleOrientation 0 0 1  0
              center 0 0 0
              children 
                DEF o3 Group {
                  children [ 
                    DEF o4 Group {
                      children 
                        DEF o5 Transform {
                          translation 0 0 0
                          rotation 0 0 1  0
                          scale 1 1 1
                          scaleOrientation 0 0 1  0
                          center 0 0 0

                        }

                    },
                      
                    DEF o6 Group {
                      children 
                        DEF o7 Transform {
                          translation 0 0 0
                          rotation 0 0 1  0
                          scale 1 1 1
                          scaleOrientation 0 0 1  0
                          center 0 0 0
                          children 
                            DEF o8 Group {

                            }

                        }

                    },
                      
                    DEF o9 Group {
                      children 
                        DEF o10 Transform {
                          translation 0 0 0
                          rotation 0 0 1  0
                          scale 1 1 1
                          scaleOrientation 0 0 1  0
                          center 0 0 0

                        }

                    },
                      
                    DEF o11 Group {
                      children 
                        DEF o12 Transform {
                          translation 45 0 0
                          rotation 0 0 1  0
                          scale 1 1 1
                          scaleOrientation 0 0 1  0
                          center 0 0 0
                          children 
                            DEF o13 Group {
                              children 
                                DEF o14 Group {
                                  children 
                                    DEF o15 Shape {
                                      appearance 
                                      Appearance {
                                        material 
                                        Material {
                                          diffuseColor 0 0 0

                                        }

                                      }
                                      geometry 
                                      IndexedLineSet {
                                        coord 
                                        Coordinate {
                                          point [ 0 0 0,
                                              6 0 0,
                                              0 6 0,
                                              0 0 6 ]

                                        }
                                        color 
                                        Color {
                                          color [ 0 0 0,
                                              1 0 0,
                                              0 0.60000002 0,
                                              0 0 1 ]

                                        }
                                        colorPerVertex FALSE
                                        coordIndex [ 0, 1, -1, 0, 2, -1, 0, 3,
                                            -1 ]
                                        colorIndex [ 1, 2, 3 ]

                                      }

                                    }

                                }

                            }

                        }

                    },
                      
                    DEF o16 Group {
                      children 
                        DEF o17 Transform {
                          translation 45 0 0
                          rotation 0.99999976 0 0  0.52359891
                          scale 1 1 1
                          scaleOrientation 0 0 1  0
                          center 0 0 0

                        }

                    },
                      
                    DEF o18 Group {
                      children 
                        DEF o19 Transform {
                          translation 45 0 0
                          rotation 0.99999976 0 0  0.52359891
                          scale 1 1 1
                          scaleOrientation 0 0 1  0
                          center 0 0 0
                          children 
                            DEF o20 Group {

                            }

                        }

                    },
                      
                    DEF o21 Group {
                      children 
                        DEF o22 Transform {
                          translation 0 0 0
                          rotation 0 0 1  0
                          scale 1 1 1
                          scaleOrientation 0 0 1  0
                          center 0 0 0

                        }

                    },
                      
                    DEF o23 Group {
                      children 
                        DEF o24 Transform {
                          translation 0 0 0
                          rotation 0 0 1  0
                          scale 1 1 1
                          scaleOrientation 0 0 1  0
                          center 0 0 0
                          children 
                            DEF o25 Group {
                              children [ 
                                DEF o26 Group {
                                  children 
                                    DEF o27 Shape {
                                      appearance 
                                      Appearance {
                                        material 
                                        Material {
                                          emissiveColor 0.098039217 0.098039217 0.098039217

                                        }

                                      }
                                      geometry 
                                      PointSet {
                                        coord 
                                        DEF o28 Coordinate {
                                          point [ 45 0 -35,
                                              44.158806 8.6602545 -35,
                                              44.906273 2.9028575 -35,
                                              44.625484 5.793623 -35,
                                              45 0 -20,
                                              44.789207 4.3505058 -27.535297,
                                              45 0 -35,
                                              44.158806 8.6602545 -35,
                                              44.906273 2.9028575 -35,
                                              44.625484 5.793623 -35,
                                              40.053173 -20.51203 -35,
                                              42.194523 -15.640401 -35,
                                              43.745815 -10.550053 -35,
                                              44.685352 -5.31217 -35,
                                              37.925526 -13.963805 -35,
                                              15.961816 -21.100246 -35,
                                              21.882212 -39.321354 -35,
                                              -7.1309891 -44.431396 -35,
                                              -2.1581869 -44.948215 -35,
                                              2.8412547 -44.910213 -35,
                                              7.805625 -44.317856 -35,
                                              12.673646 -43.178452 -35,
                                              17.385227 -41.506069 -35,
                                              -1.5607363 -40.384373 -35,
                                              -15.135056 -21.700924 -35,
                                              -30.634853 -32.962185 -35,
                                              -44.460365 -6.9480834 -35,
                                              -43.415211 -11.837205 -35,
                                              -41.834156 -16.580214 -35,
                                              -39.736713 -21.118561 -35,
                                              -37.148777 -25.396229 -35,
                                              -34.102287 -29.360415 -35,
                                              -38.890114 -10.995109 -35,
                                              -25.315794 7.6883388 -35,
                                              -40.815594 18.949602 -35,
                                              -20.347029 40.137245 -35,
                                              -24.673889 37.632423 -35,
                                              -28.696184 34.663078 -35,
                                              -32.364265 31.265865 -35,
                                              -35.632851 27.482719 -35,
                                              -38.461601 23.360336 -35,
                                              -22.474676 33.58902 -35,
                                              -0.51096618 26.452579 -35,
                                              5.40943 44.673683 -35,
                                              31.88521 31.754265 -35,
                                              28.165909 35.095322 -35,
                                              24.098938 38.003174 -35,
                                              19.734497 40.441929 -35,
                                              15.126463 42.381485 -35,
                                              10.331712 43.797897 -35,
                                              25 31.754265 -35,
                                              25 8.6602545 -35,
                                              25 -31.754265 35,
                                              25 8.6602545 -35,
                                              44.158806 8.6602545 -35,
                                              45 0 -20,
                                              44.789207 4.3505058 -27.535297,
                                              31.88521 -31.754265 35,
                                              35.130375 -28.122177 28.70904,
                                              37.963982 -24.160633 21.847445,
                                              40.476234 -19.664042 14.059119,
                                              42.496475 -14.800324 5.6349144,
                                              43.954643 -9.6430922 -3.2976744,
                                              44.737896 -4.8497934 -11.599911,
                                              45 0 -35,
                                              45 0 -20,
                                              31.88521 -31.754265 35,
                                              35.130375 -28.122177 28.70904,
                                              37.963982 -24.160633 21.847445,
                                              40.476234 -19.664042 14.059119,
                                              42.496475 -14.800324 5.6349144,
                                              43.954643 -9.6430922 -3.2976744,
                                              44.737896 -4.8497934 -11.599911,
                                              5.40943 -44.673683 35,
                                              10.331712 -43.797897 35,
                                              15.126463 -42.381485 35,
                                              19.734497 -40.441929 35,
                                              24.098938 -38.003174 35,
                                              28.165909 -35.095322 35,
                                              40.053173 -20.51203 -35,
                                              37.601662 -24.720741 -28.70904,
                                              34.709644 -28.639845 -21.847445,
                                              31.209459 -32.418663 -14.059119,
                                              27.208078 -35.842999 -5.6349144,
                                              22.753859 -38.823471 3.2976744,
                                              17.915577 -41.279922 12.582444,
                                              12.779938 -43.14711 22.041651,
                                              9.1266575 -44.064774 28.550781,
                                              42.194523 -15.640401 -35,
                                              43.745815 -10.550053 -35,
                                              44.685352 -5.31217 -35,
                                              -0.51096618 -26.452579 35,
                                              5.40943 -44.673683 35,
                                              40.053173 -20.51203 -35,
                                              37.601662 -24.720741 -28.70904,
                                              34.709644 -28.639845 -21.847445,
                                              31.209459 -32.418663 -14.059119,
                                              27.208078 -35.842999 -5.6349144,
                                              22.753859 -38.823471 3.2976744,
                                              17.915577 -41.279922 12.582444,
                                              12.779938 -43.14711 22.041651,
                                              9.1266575 -44.064774 28.550781,
                                              37.925526 -13.963805 -35,
                                              -22.474676 -33.58902 35,
                                              -0.51096618 -26.452579 35,
                                              37.925526 -13.963805 -35,
                                              15.961816 -21.100246 -35,
                                              -22.474676 -33.58902 35,
                                              15.961816 -21.100246 -35,
                                              21.882212 -39.321354 -35,
                                              -20.347029 -40.137245 35,
                                              -15.889896 -42.1012 28.70904,
                                              -11.246613 -43.571938 21.847445,
                                              -6.1937714 -44.571709 14.059119,
                                              -0.94381213 -44.990101 5.6349144,
                                              4.4116063 -44.78323 -3.2976744,
                                              9.7697248 -43.92667 -12.582444,
                                              15.022049 -42.418606 -22.041651,
                                              18.517002 -41.013664 -28.550781,
                                              -20.347029 -40.137245 35,
                                              21.882212 -39.321354 -35,
                                              -15.889896 -42.1012 28.70904,
                                              -11.246613 -43.571938 21.847445,
                                              -6.1937714 -44.571709 14.059119,
                                              -0.94381213 -44.990101 5.6349144,
                                              4.4116063 -44.78323 -3.2976744,
                                              9.7697248 -43.92667 -12.582444,
                                              15.022049 -42.418606 -22.041651,
                                              18.517002 -41.013664 -28.550781,
                                              -40.815594 -18.949602 35,
                                              -38.461601 -23.360336 35,
                                              -35.632851 -27.482719 35,
                                              -32.364265 -31.265865 35,
                                              -28.696184 -34.663078 35,
                                              -24.673889 -37.632423 35,
                                              -7.1309891 -44.431396 -35,
                                              -11.891269 -43.400436 -28.70904,
                                              -16.512241 -41.861031 -21.847445,
                                              -21.187727 -39.699879 -14.059119,
                                              -25.680958 -36.952515 -5.6349144,
                                              -29.891987 -33.637318 3.2976744,
                                              -33.723324 -29.794924 12.582444,
                                              -37.086124 -25.487635 22.041651,
                                              -39.087795 -22.29673 28.550781,
                                              -2.1581869 -44.948215 -35,
                                              2.8412547 -44.910213 -35,
                                              7.805625 -44.317856 -35,
                                              12.673646 -43.178452 -35,
                                              17.385227 -41.506069 -35,
                                              -25.315794 -7.6883388 35,
                                              -40.815594 -18.949602 35,
                                              -7.1309891 -44.431396 -35,
                                              -11.891269 -43.400436 -28.70904,
                                              -16.512241 -41.861031 -21.847445,
                                              -21.187727 -39.699879 -14.059119,
                                              -25.680958 -36.952515 -5.6349144,
                                              -29.891987 -33.637318 3.2976744,
                                              -33.723324 -29.794924 12.582444,
                                              -37.086124 -25.487635 22.041651,
                                              -39.087795 -22.29673 28.550781,
                                              -1.5607363 -40.384373 -35,
                                              -38.890114 10.995109 35,
                                              -25.315794 -7.6883388 35,
                                              -1.5607363 -40.384373 -35,
                                              -15.135056 -21.700924 -35,
                                              -38.890114 10.995109 35,
                                              -15.135056 -21.700924 -35,
                                              -30.634853 -32.962185 -35,
                                              -44.460365 6.9480834 35,
                                              -44.950871 2.1022031 28.70904,
                                              -44.914768 -2.7683046 21.847445,
                                              -44.304195 -7.8827891 14.059119,
                                              -43.079784 -13.005087 5.6349144,
                                              -41.228123 -18.034466 -3.2976744,
                                              -38.757736 -22.865648 -12.582444,
                                              -35.700424 -27.394886 -22.041651,
                                              -33.284245 -30.284634 -28.550781,
                                              -44.460365 6.9480834 35,
                                              -30.634853 -32.962185 -35,
                                              -44.950871 2.1022031 28.70904,
                                              -44.914768 -2.7683046 21.847445,
                                              -44.304195 -7.8827891 14.059119,
                                              -43.079784 -13.005087 5.6349144,
                                              -41.228123 -18.034466 -3.2976744,
                                              -38.757736 -22.865648 -12.582444,
                                              -35.700424 -27.394886 -22.041651,
                                              -33.284245 -30.284634 -28.550781,
                                              -30.634853 32.962185 35,
                                              -34.102287 29.360415 35,
                                              -37.148777 25.396229 35,
                                              -39.736713 21.118561 35,
                                              -41.834156 16.580214 35,
                                              -43.415211 11.837205 35,
                                              -44.460365 -6.9480834 -35,
                                              -44.950871 -2.1022031 -28.70904,
                                              -44.914768 2.7683046 -21.847445,
                                              -44.304195 7.8827891 -14.059119,
                                              -43.079784 13.005087 -5.6349144,
                                              -41.228123 18.034466 3.2976744,
                                              -38.757736 22.865648 12.582444,
                                              -35.700424 27.394886 22.041651,
                                              -33.284245 30.284634 28.550781,
                                              -43.415211 -11.837205 -35,
                                              -41.834156 -16.580214 -35,
                                              -39.736713 -21.118561 -35,
                                              -37.148777 -25.396229 -35,
                                              -34.102287 -29.360415 -35,
                                              -15.135056 21.700924 35,
                                              -30.634853 32.962185 35,
                                              -44.460365 -6.9480834 -35,
                                              -44.950871 -2.1022031 -28.70904,
                                              -44.914768 2.7683046 -21.847445,
                                              -44.304195 7.8827891 -14.059119,
                                              -43.079784 13.005087 -5.6349144,
                                              -41.228123 18.034466 3.2976744,
                                              -38.757736 22.865648 12.582444,
                                              -35.700424 27.394886 22.041651,
                                              -33.284245 30.284634 28.550781,
                                              -38.890114 -10.995109 -35,
                                              -1.5607363 40.384373 35,
                                              -15.135056 21.700924 35,
                                              -38.890114 -10.995109 -35,
                                              -25.315794 7.6883388 -35,
                                              -1.5607363 40.384373 35,
                                              -25.315794 7.6883388 -35,
                                              -40.815594 18.949602 -35,
                                              -7.1309891 44.431396 35,
                                              -11.891269 43.400436 28.70904,
                                              -16.512241 41.861031 21.847445,
                                              -21.187727 39.699879 14.059119,
                                              -25.680958 36.952515 5.6349144,
                                              -29.891987 33.637318 -3.2976744,
                                              -33.723324 29.794924 -12.582444,
                                              -37.086124 25.487635 -22.041651,
                                              -39.087795 22.29673 -28.550781,
                                              -7.1309891 44.431396 35,
                                              -40.815594 18.949602 -35,
                                              -11.891269 43.400436 28.70904,
                                              -16.512241 41.861031 21.847445,
                                              -21.187727 39.699879 14.059119,
                                              -25.680958 36.952515 5.6349144,
                                              -29.891987 33.637318 -3.2976744,
                                              -33.723324 29.794924 -12.582444,
                                              -37.086124 25.487635 -22.041651,
                                              -39.087795 22.29673 -28.550781,
                                              21.882212 39.321354 35,
                                              17.385227 41.506069 35,
                                              12.673646 43.178452 35,
                                              7.805625 44.317856 35,
                                              2.8412547 44.910213 35,
                                              -2.1581869 44.948215 35,
                                              -20.347029 40.137245 -35,
                                              -15.889896 42.1012 -28.70904,
                                              -11.246613 43.571938 -21.847445,
                                              -6.1937714 44.571709 -14.059119,
                                              -0.94381213 44.990101 -5.6349144,
                                              4.4116063 44.78323 3.2976744,
                                              9.7697248 43.92667 12.582444,
                                              15.022049 42.418606 22.041651,
                                              18.517002 41.013664 28.550781,
                                              -24.673889 37.632423 -35,
                                              -28.696184 34.663078 -35,
                                              -32.364265 31.265865 -35,
                                              -35.632851 27.482719 -35,
                                              -38.461601 23.360336 -35,
                                              15.961816 21.100246 35,
                                              21.882212 39.321354 35,
                                              -20.347029 40.137245 -35,
                                              -15.889896 42.1012 -28.70904,
                                              -11.246613 43.571938 -21.847445,
                                              -6.1937714 44.571709 -14.059119,
                                              -0.94381213 44.990101 -5.6349144,
                                              4.4116063 44.78323 3.2976744,
                                              9.7697248 43.92667 12.582444,
                                              15.022049 42.418606 22.041651,
                                              18.517002 41.013664 28.550781,
                                              -22.474676 33.58902 -35,
                                              37.925526 13.963805 35,
                                              15.961816 21.100246 35,
                                              -22.474676 33.58902 -35,
                                              -0.51096618 26.452579 -35,
                                              37.925526 13.963805 35,
                                              -0.51096618 26.452579 -35,
                                              5.40943 44.673683 -35,
                                              40.053173 20.51203 35,
                                              37.601662 24.720741 28.70904,
                                              34.709644 28.639845 21.847445,
                                              31.209459 32.418663 14.059119,
                                              27.208078 35.842999 5.6349144,
                                              22.753859 38.823471 -3.2976744,
                                              17.915577 41.279922 -12.582444,
                                              12.779938 43.14711 -22.041651,
                                              9.1266575 44.064774 -28.550781,
                                              40.053173 20.51203 35,
                                              5.40943 44.673683 -35,
                                              37.601662 24.720741 28.70904,
                                              34.709644 28.639845 21.847445,
                                              31.209459 32.418663 14.059119,
                                              27.208078 35.842999 5.6349144,
                                              22.753859 38.823471 -3.2976744,
                                              17.915577 41.279922 -12.582444,
                                              12.779938 43.14711 -22.041651,
                                              9.1266575 44.064774 -28.550781,
                                              45 0 35,
                                              44.685352 5.31217 35,
                                              43.745815 10.550053 35,
                                              42.194523 15.640401 35,
                                              45 0 20,
                                              31.88521 31.754265 -35,
                                              35.130375 28.122177 -28.70904,
                                              37.963982 24.160633 -21.847445,
                                              40.476234 19.664042 -14.059119,
                                              42.496475 14.800324 -5.6349144,
                                              43.954643 9.6430922 3.2976744,
                                              44.737896 4.8497934 11.599911,
                                              28.165909 35.095322 -35,
                                              24.098938 38.003174 -35,
                                              19.734497 40.441929 -35,
                                              15.126463 42.381485 -35,
                                              10.331712 43.797897 -35,
                                              25 -8.6602545 35,
                                              44.158806 -8.6602545 35,
                                              45 0 20,
                                              44.789207 -4.3505058 27.535297,
                                              31.88521 31.754265 -35,
                                              35.130375 28.122177 -28.70904,
                                              37.963982 24.160633 -21.847445,
                                              40.476234 19.664042 -14.059119,
                                              42.496475 14.800324 -5.6349144,
                                              43.954643 9.6430922 3.2976744,
                                              44.737896 4.8497934 11.599911,
                                              25 31.754265 -35,
                                              25 -31.754265 35,
                                              25 -8.6602545 35,
                                              25 31.754265 -35,
                                              25 8.6602545 -35,
                                              5.40943 -44.673683 35,
                                              31.88521 -31.754265 35,
                                              10.331712 -43.797897 35,
                                              15.126463 -42.381485 35,
                                              19.734497 -40.441929 35,
                                              24.098938 -38.003174 35,
                                              28.165909 -35.095322 35,
                                              -0.51096618 -26.452579 35,
                                              -22.474676 -33.58902 35,
                                              -20.347029 -40.137245 35,
                                              -40.815594 -18.949602 35,
                                              -38.461601 -23.360336 35,
                                              -35.632851 -27.482719 35,
                                              -32.364265 -31.265865 35,
                                              -28.696184 -34.663078 35,
                                              -24.673889 -37.632423 35,
                                              -25.315794 -7.6883388 35,
                                              -38.890114 10.995109 35,
                                              -44.460365 6.9480834 35,
                                              -30.634853 32.962185 35,
                                              -34.102287 29.360415 35,
                                              -37.148777 25.396229 35,
                                              -39.736713 21.118561 35,
                                              -41.834156 16.580214 35,
                                              -43.415211 11.837205 35,
                                              -15.135056 21.700924 35,
                                              -1.5607363 40.384373 35,
                                              -7.1309891 44.431396 35,
                                              21.882212 39.321354 35,
                                              17.385227 41.506069 35,
                                              12.673646 43.178452 35,
                                              7.805625 44.317856 35,
                                              2.8412547 44.910213 35,
                                              -2.1581869 44.948215 35,
                                              15.961816 21.100246 35,
                                              37.925526 13.963805 35,
                                              40.053173 20.51203 35,
                                              45 0 35,
                                              44.685352 5.31217 35,
                                              43.745815 10.550053 35,
                                              42.194523 15.640401 35,
                                              44.158806 -8.6602545 35,
                                              44.625484 -5.793623 35,
                                              44.906273 -2.9028575 35,
                                              25 -8.6602545 35,
                                              25 -31.754265 35,
                                              45 0 20,
                                              45 0 35,
                                              44.158806 -8.6602545 35,
                                              44.625484 -5.793623 35,
                                              44.906273 -2.9028575 35,
                                              44.789207 -4.3505058 27.535297,
                                              45 0 -35,
                                              44.158806 8.6602545 -35,
                                              45 0 -20,
                                              40.053173 -20.51203 -35,
                                              37.925526 -13.963805 -35,
                                              15.961816 -21.100246 -35,
                                              21.882212 -39.321354 -35,
                                              -7.1309891 -44.431396 -35,
                                              -1.5607363 -40.384373 -35,
                                              -15.135056 -21.700924 -35,
                                              -30.634853 -32.962185 -35,
                                              -44.460365 -6.9480834 -35,
                                              -38.890114 -10.995109 -35,
                                              -25.315794 7.6883388 -35,
                                              -40.815594 18.949602 -35,
                                              -20.347029 40.137245 -35,
                                              -22.474676 33.58902 -35,
                                              -0.51096618 26.452579 -35,
                                              5.40943 44.673683 -35,
                                              31.88521 31.754265 -35,
                                              25 31.754265 -35,
                                              25 8.6602545 -35,
                                              25 -31.754265 35,
                                              31.88521 -31.754265 35,
                                              5.40943 -44.673683 35,
                                              -0.51096618 -26.452579 35,
                                              -22.474676 -33.58902 35,
                                              -20.347029 -40.137245 35,
                                              -40.815594 -18.949602 35,
                                              -25.315794 -7.6883388 35,
                                              -38.890114 10.995109 35,
                                              -44.460365 6.9480834 35,
                                              -30.634853 32.962185 35,
                                              -15.135056 21.700924 35,
                                              -1.5607363 40.384373 35,
                                              -7.1309891 44.431396 35,
                                              21.882212 39.321354 35,
                                              15.961816 21.100246 35,
                                              37.925526 13.963805 35,
                                              40.053173 20.51203 35,
                                              45 0 35,
                                              45 0 20,
                                              25 -8.6602545 35,
                                              44.158806 -8.6602545 35 ]

                                        }

                                      }

                                    }

                                },
                                  
                                DEF o29 Group {
                                  children 
                                    DEF o30 Shape {
                                      appearance 
                                      Appearance {
                                        material 
                                        Material {
                                          diffuseColor 0.098039217 0.098039217 0.098039217
                                          shininess 1

                                        }

                                      }
                                      geometry 
                                      IndexedLineSet {
                                        coord 
                                        USE o28
                                        coordIndex [ 0, 2, 3, 1, -1, 4, 5, 1,
                                            -1, 0, 4, -1, 10, 11, 12, 13,
                                            6, -1, 14, 10, -1, 15, 14, -1,
                                            16, 15, -1, 17, 18, 19, 20, 21,
                                            22, 16, -1, 23, 17, -1, 24, 23,
                                            -1, 25, 24, -1, 26, 27, 28, 29,
                                            30, 31, 25, -1, 32, 26, -1, 33,
                                            32, -1, 34, 33, -1, 35, 36, 37,
                                            38, 39, 40, 34, -1, 41, 35, -1,
                                            42, 41, -1, 43, 42, -1, 44, 45,
                                            46, 47, 48, 49, 43, -1, 50, 44,
                                            -1, 51, 50, -1, 7, 51, -1, 52,
                                            53, -1, 57, 58, 59, 60, 61, 62,
                                            63, 55, -1, 57, 52, -1, 73, 74,
                                            75, 76, 77, 78, 66, -1, 79, 80,
                                            81, 82, 83, 84, 85, 86, 87, 73,
                                            -1, 91, 92, -1, 91, 102, -1, 103,
                                            104, -1, 103, 106, -1, 110, 111, 112,
                                            113, 114, 115, 116, 117, 118, 109, -1,
                                            110, 107, -1, 129, 130, 131, 132, 133,
                                            134, 119, -1, 135, 136, 137, 138, 139,
                                            140, 141, 142, 143, 129, -1, 149, 150,
                                            -1, 149, 160, -1, 161, 162, -1, 161,
                                            164, -1, 168, 169, 170, 171, 172, 173,
                                            174, 175, 176, 167, -1, 168, 165, -1,
                                            187, 188, 189, 190, 191, 192, 177, -1,
                                            193, 194, 195, 196, 197, 198, 199, 200,
                                            201, 187, -1, 207, 208, -1, 207, 218,
                                            -1, 219, 220, -1, 219, 222, -1, 226,
                                            227, 228, 229, 230, 231, 232, 233, 234,
                                            225, -1, 226, 223, -1, 245, 246, 247,
                                            248, 249, 250, 235, -1, 251, 252, 253,
                                            254, 255, 256, 257, 258, 259, 245, -1,
                                            265, 266, -1, 265, 276, -1, 277, 278,
                                            -1, 277, 280, -1, 284, 285, 286, 287,
                                            288, 289, 290, 291, 292, 283, -1, 284,
                                            281, -1, 303, 304, 305, 306, 293, -1,
                                            307, 303, -1, 308, 309, 310, 311, 312,
                                            313, 314, 307, -1, 320, 321, -1, 322,
                                            323, 321, -1, 320, 331, -1, 332, 333,
                                            -1, 377, 378, 379, 373, -1 ]

                                      }

                                    }

                                },
                                  
                                DEF o31 Group {
                                  children 
                                    DEF o32 Shape {
                                      appearance 
                                      Appearance {
                                        material 
                                        Material {

                                        }

                                      }
                                      geometry 
                                      IndexedFaceSet {
                                        coord 
                                        USE o28
                                        coordIndex [ 0, 5, 4, -1, 0, 2, 5, -1,
                                            2, 3, 5, -1, 3, 1, 5, -1,
                                            43, 49, 42, -1, 42, 50, 51, -1,
                                            49, 48, 42, -1, 42, 48, 50, -1,
                                            48, 47, 50, -1, 47, 46, 50, -1,
                                            46, 45, 50, -1, 45, 44, 50, -1,
                                            26, 32, 27, -1, 27, 32, 28, -1,
                                            28, 32, 29, -1, 29, 32, 30, -1,
                                            17, 23, 18, -1, 18, 23, 19, -1,
                                            30, 24, 31, -1, 31, 24, 25, -1,
                                            32, 24, 30, -1, 23, 20, 19, -1,
                                            23, 21, 20, -1, 32, 33, 24, -1,
                                            34, 40, 33, -1, 40, 39, 33, -1,
                                            21, 15, 22, -1, 22, 15, 16, -1,
                                            24, 15, 23, -1, 23, 15, 21, -1,
                                            33, 15, 24, -1, 37, 41, 38, -1,
                                            38, 41, 39, -1, 39, 41, 33, -1,
                                            37, 36, 41, -1, 36, 35, 41, -1,
                                            41, 42, 33, -1, 14, 11, 10, -1,
                                            14, 12, 11, -1, 42, 51, 33, -1,
                                            15, 51, 14, -1, 33, 51, 15, -1,
                                            14, 13, 12, -1, 51, 13, 14, -1,
                                            51, 6, 13, -1, 51, 8, 6, -1,
                                            51, 9, 8, -1, 51, 7, 9, -1,
                                            53, 55, 56, -1, 53, 56, 54, -1,
                                            63, 55, 53, -1, 62, 63, 53, -1,
                                            61, 62, 53, -1, 52, 57, 58, -1,
                                            52, 58, 59, -1, 52, 59, 60, -1,
                                            52, 60, 61, -1, 52, 61, 53, -1,
                                            87, 74, 73, -1, 87, 86, 74, -1,
                                            86, 75, 74, -1, 75, 85, 76, -1,
                                            86, 85, 75, -1, 76, 84, 77, -1,
                                            85, 84, 76, -1, 77, 83, 78, -1,
                                            84, 83, 77, -1, 78, 82, 66, -1,
                                            83, 82, 78, -1, 82, 67, 66, -1,
                                            82, 81, 67, -1, 81, 68, 67, -1,
                                            81, 80, 68, -1, 80, 69, 68, -1,
                                            80, 79, 69, -1, 69, 88, 70, -1,
                                            79, 88, 69, -1, 70, 89, 71, -1,
                                            88, 89, 70, -1, 71, 90, 72, -1,
                                            89, 90, 71, -1, 90, 65, 72, -1,
                                            90, 64, 65, -1, 94, 102, 93, -1,
                                            95, 102, 94, -1, 96, 102, 95, -1,
                                            97, 102, 96, -1, 91, 97, 98, -1,
                                            91, 98, 99, -1, 91, 102, 97, -1,
                                            100, 91, 99, -1, 101, 91, 100, -1,
                                            92, 91, 101, -1, 104, 106, 105, -1,
                                            104, 103, 106, -1, 108, 117, 118, -1,
                                            108, 118, 109, -1, 116, 117, 108, -1,
                                            115, 116, 108, -1, 114, 115, 108, -1,
                                            107, 110, 111, -1, 107, 111, 112, -1,
                                            107, 112, 113, -1, 107, 113, 114, -1,
                                            107, 114, 108, -1, 143, 130, 129, -1,
                                            143, 142, 130, -1, 142, 131, 130, -1,
                                            131, 141, 132, -1, 142, 141, 131, -1,
                                            132, 140, 133, -1, 141, 140, 132, -1,
                                            133, 139, 134, -1, 140, 139, 133, -1,
                                            134, 138, 119, -1, 139, 138, 134, -1,
                                            138, 121, 119, -1, 138, 137, 121, -1,
                                            137, 122, 121, -1, 137, 136, 122, -1,
                                            136, 123, 122, -1, 136, 135, 123, -1,
                                            123, 144, 124, -1, 135, 144, 123, -1,
                                            124, 145, 125, -1, 144, 145, 124, -1,
                                            125, 146, 126, -1, 145, 146, 125, -1,
                                            146, 147, 126, -1, 147, 127, 126, -1,
                                            147, 148, 127, -1, 148, 128, 127, -1,
                                            148, 120, 128, -1, 152, 160, 151, -1,
                                            153, 160, 152, -1, 154, 160, 153, -1,
                                            155, 160, 154, -1, 149, 155, 156, -1,
                                            149, 156, 157, -1, 149, 160, 155, -1,
                                            158, 149, 157, -1, 159, 149, 158, -1,
                                            150, 149, 159, -1, 162, 164, 163, -1,
                                            162, 161, 164, -1, 166, 175, 176, -1,
                                            166, 176, 167, -1, 174, 175, 166, -1,
                                            173, 174, 166, -1, 172, 173, 166, -1,
                                            165, 168, 169, -1, 165, 169, 170, -1,
                                            165, 170, 171, -1, 165, 171, 172, -1,
                                            165, 172, 166, -1, 201, 188, 187, -1,
                                            201, 200, 188, -1, 200, 189, 188, -1,
                                            189, 199, 190, -1, 200, 199, 189, -1,
                                            190, 198, 191, -1, 199, 198, 190, -1,
                                            191, 197, 192, -1, 198, 197, 191, -1,
                                            192, 196, 177, -1, 197, 196, 192, -1,
                                            196, 179, 177, -1, 196, 195, 179, -1,
                                            195, 180, 179, -1, 195, 194, 180, -1,
                                            194, 181, 180, -1, 194, 193, 181, -1,
                                            181, 202, 182, -1, 193, 202, 181, -1,
                                            182, 203, 183, -1, 202, 203, 182, -1,
                                            183, 204, 184, -1, 203, 204, 183, -1,
                                            204, 205, 184, -1, 205, 185, 184, -1,
                                            205, 206, 185, -1, 206, 186, 185, -1,
                                            206, 178, 186, -1, 210, 218, 209, -1,
                                            211, 218, 210, -1, 212, 218, 211, -1,
                                            213, 218, 212, -1, 207, 213, 214, -1,
                                            207, 214, 215, -1, 207, 218, 213, -1,
                                            216, 207, 215, -1, 217, 207, 216, -1,
                                            208, 207, 217, -1, 220, 222, 221, -1,
                                            220, 219, 222, -1, 224, 233, 234, -1,
                                            224, 234, 225, -1, 232, 233, 224, -1,
                                            231, 232, 224, -1, 230, 231, 224, -1,
                                            223, 226, 227, -1, 223, 227, 228, -1,
                                            223, 228, 229, -1, 223, 229, 230, -1,
                                            223, 230, 224, -1, 259, 246, 245, -1,
                                            259, 258, 246, -1, 258, 247, 246, -1,
                                            247, 257, 248, -1, 258, 257, 247, -1,
                                            248, 256, 249, -1, 257, 256, 248, -1,
                                            249, 255, 250, -1, 256, 255, 249, -1,
                                            250, 254, 235, -1, 255, 254, 250, -1,
                                            254, 237, 235, -1, 254, 253, 237, -1,
                                            253, 238, 237, -1, 253, 252, 238, -1,
                                            252, 239, 238, -1, 252, 251, 239, -1,
                                            239, 260, 240, -1, 251, 260, 239, -1,
                                            240, 261, 241, -1, 260, 261, 240, -1,
                                            241, 262, 242, -1, 261, 262, 241, -1,
                                            262, 263, 242, -1, 263, 243, 242, -1,
                                            263, 264, 243, -1, 264, 244, 243, -1,
                                            264, 236, 244, -1, 268, 276, 267, -1,
                                            269, 276, 268, -1, 270, 276, 269, -1,
                                            271, 276, 270, -1, 265, 271, 272, -1,
                                            265, 272, 273, -1, 265, 276, 271, -1,
                                            274, 265, 273, -1, 275, 265, 274, -1,
                                            266, 265, 275, -1, 278, 280, 279, -1,
                                            278, 277, 280, -1, 282, 291, 292, -1,
                                            282, 292, 283, -1, 290, 291, 282, -1,
                                            289, 290, 282, -1, 288, 289, 282, -1,
                                            281, 284, 285, -1, 281, 285, 286, -1,
                                            281, 286, 287, -1, 281, 287, 288, -1,
                                            281, 288, 282, -1, 307, 304, 303, -1,
                                            307, 314, 304, -1, 304, 313, 305, -1,
                                            314, 313, 304, -1, 305, 312, 306, -1,
                                            313, 312, 305, -1, 306, 311, 293, -1,
                                            312, 311, 306, -1, 311, 295, 293, -1,
                                            311, 310, 295, -1, 310, 296, 295, -1,
                                            310, 309, 296, -1, 309, 297, 296, -1,
                                            309, 308, 297, -1, 297, 315, 298, -1,
                                            308, 315, 297, -1, 298, 316, 299, -1,
                                            315, 316, 298, -1, 299, 317, 300, -1,
                                            316, 317, 299, -1, 317, 318, 300, -1,
                                            318, 301, 300, -1, 318, 319, 301, -1,
                                            319, 302, 301, -1, 319, 294, 302, -1,
                                            325, 331, 324, -1, 326, 331, 325, -1,
                                            327, 331, 326, -1, 328, 331, 327, -1,
                                            320, 328, 329, -1, 320, 329, 330, -1,
                                            320, 331, 328, -1, 322, 320, 330, -1,
                                            323, 320, 322, -1, 321, 320, 323, -1,
                                            333, 335, 334, -1, 333, 332, 335, -1,
                                            371, 370, 380, -1, 371, 380, 374, -1,
                                            367, 368, 362, -1, 375, 371, 374, -1,
                                            366, 362, 370, -1, 366, 367, 362, -1,
                                            376, 371, 375, -1, 365, 366, 370, -1,
                                            344, 348, 349, -1, 344, 349, 350, -1,
                                            344, 350, 351, -1, 372, 371, 376, -1,
                                            344, 351, 345, -1, 364, 365, 370, -1,
                                            352, 346, 347, -1, 352, 347, 348, -1,
                                            352, 348, 344, -1, 353, 360, 354, -1,
                                            343, 336, 338, -1, 343, 338, 339, -1,
                                            343, 352, 344, -1, 359, 360, 353, -1,
                                            358, 359, 353, -1, 357, 358, 353, -1,
                                            381, 339, 340, -1, 381, 340, 341, -1,
                                            381, 341, 342, -1, 381, 343, 339, -1,
                                            337, 381, 342, -1, 361, 353, 352, -1,
                                            361, 355, 356, -1, 361, 356, 357, -1,
                                            361, 357, 353, -1, 380, 352, 343, -1,
                                            380, 343, 381, -1, 370, 361, 352, -1,
                                            370, 352, 380, -1, 362, 361, 370, -1,
                                            378, 380, 377, -1, 379, 380, 378, -1,
                                            369, 363, 362, -1, 373, 380, 379, -1,
                                            368, 369, 362, -1, 374, 380, 373, -1,
                                            384, 387, 385, -1, 385, 387, 386, -1,
                                            387, 383, 386, -1, 387, 382, 383, -1 ]
                                        ccw TRUE
                                        solid FALSE
                                        convex TRUE
                                        creaseAngle 0

                                      }

                                    }

                                } ]

                            }

                        }

                    },
                      
                    DEF o33 Group {
                      children 
                        DEF o34 Transform {
                          translation 0 0 -35
                          rotation 1 0 0  3.1415927
                          scale 1 1 1
                          scaleOrientation 0 0 1  0
                          center 0 0 0
                          children 
                            DEF o35 Group {

                            }

                        }

                    },
                      
                    DEF o36 Group {
                      children 
                        DEF o37 Transform {
                          translation 0 0 0
                          rotation 0 0 1  0
                          scale 1 1 1
                          scaleOrientation 0 0 1  0
                          center 0 0 0

                        }

                    } ]

                }

            }

        }

    }

}
